Division,WeightClassKg,Place,Name,Team,BodyweightKg,Best3SquatKg,Best3BenchKg,Best3DeadliftKg,TotalKg,Equipment,Event,Sex
Boys,51.71,1,Carlos Reynoso,McKinney Boyd,51.44,127.01,72.57,154.22,353.8,Single-ply,SBD,M
Boys,51.71,2,Devin Brinkley,Muenster,50.53,90.72,45.36,99.79,235.87,Single-ply,SBD,M
Boys,51.71,3,Jacob Cunliffe,Bells,51.17,90.72,52.16,92.99,235.87,Single-ply,SBD,M
Boys,51.71,4,Hunter Cathey,Pottsboro,45.99,83.91,45.36,90.72,219.99,Single-ply,SBD,M
Boys,51.71,5,John Furhman,Lindsay,44.81,81.65,36.29,90.72,208.65,Single-ply,SBD,M
Boys,51.71,6,Sean Stoffels,Lindsay,39.92,63.5,36.29,90.72,190.51,Single-ply,SBD,M
Boys,51.71,DQ,Rashaun McKinnon,Frisco,51.53,77.11,,,,Single-ply,SBD,M
Boys,51.71,DQ,Michael Slack,Whitewright,51.07,99.79,,,,Single-ply,SBD,M
Boys,55.79,1,Darius Rivera,Princeton,55.61,172.37,99.79,192.78,464.93,Single-ply,SBD,M
Boys,55.79,2,Kobe Parker,Pottsboro,55.61,149.69,97.52,136.08,383.29,Single-ply,SBD,M
Boys,55.79,3,Baldemar Carbajal,Sherman,55.43,133.81,88.45,131.54,353.8,Single-ply,SBD,M
Boys,55.79,4,Fernando Salas,Farmersville,55.34,127.01,83.91,136.08,347,Single-ply,SBD,M
Boys,55.79,5,Chris Bowling,Blue Ridge,54.88,124.74,79.38,133.81,337.93,Single-ply,SBD,M
Boys,55.79,6,Alex Rushing,Whitewright,53.89,120.2,74.84,122.47,317.51,Single-ply,SBD,M
Boys,55.79,7,Brendan Collum,Sadler S & S Cons,54.79,104.33,58.97,120.2,283.5,Single-ply,SBD,M
Boys,55.79,8,Dawson Anderle,Lindsay,53.61,104.33,52.16,106.59,263.08,Single-ply,SBD,M
Boys,55.79,9,Brennan Ross,Howe,55.61,97.52,56.7,104.33,258.55,Single-ply,SBD,M
Boys,55.79,DQ,Jacob Grubisa,Farmersville,55.16,131.54,,,,Single-ply,SBD,M
Boys,55.79,DQ,Jake Hefton,Sherman,54.79,120.2,,,,Single-ply,SBD,M
Boys,59.87,1,Sebastian Guerra,Pilot Point,59.51,165.56,86.18,145.15,396.89,Single-ply,SBD,M
Boys,59.87,2,Alex Montoya,Blue Ridge,58.88,129.27,79.38,147.42,356.07,Single-ply,SBD,M
Boys,59.87,3,Raymond Bhikhai,Pilot Point,56.52,131.54,58.97,142.88,333.39,Single-ply,SBD,M
Boys,59.87,4,Koll Bickerstaff,Sherman,57.97,88.45,54.43,113.4,256.28,Single-ply,SBD,M
Boys,67.13,5,Daniel Roberts,Pottsboro,60.06,111.13,52.16,83.91,247.21,Single-ply,SBD,M
Boys,59.87,DQ,Zach Franzeo,Sadler S & S Cons,59.6,,,,,Single-ply,SBD,M
Boys,59.87,DQ,Kenny Adkins,Gunter,56.06,131.54,,,,Single-ply,SBD,M
Boys,59.87,DQ,Zach Braswell,Howe,56.7,115.67,,,,Single-ply,SBD,M
Boys,67.13,1,Rodrigo Castillo,Farmersville,64.59,154.22,77.11,172.37,403.7,Single-ply,SBD,M
Boys,67.13,2,Taylor Barrett,Pilot Point,65.5,151.95,90.72,151.95,394.63,Single-ply,SBD,M
Boys,67.13,3,Dusty Burris,Princeton,65.77,138.35,83.91,149.69,371.95,Single-ply,SBD,M
Boys,67.13,4,Dawson McDonald,Howe,61.23,145.15,63.5,156.49,365.14,Single-ply,SBD,M
Boys,67.13,5,John Stanley,Van Alstyne,64.5,131.54,74.84,145.15,351.53,Single-ply,SBD,M
Boys,67.13,6,Martin Mijares,Bells,66.32,129.27,77.11,145.15,351.53,Single-ply,SBD,M
Boys,67.13,7,Frank Castorena,Collinsville,66.59,136.08,61.23,136.08,333.39,Single-ply,SBD,M
Boys,67.13,8,Nate Patterson,Collinsville,61.05,113.4,61.23,129.27,303.91,Single-ply,SBD,M
Boys,67.13,9,Tanner DeBord,Lindsay,65.05,127.01,58.97,117.93,303.91,Single-ply,SBD,M
Boys,67.13,10,Logan Wann,Lindsay,62.32,108.86,65.77,122.47,297.1,Single-ply,SBD,M
Boys,67.13,11,Ryan Dunn,Bridgeport,66.95,102.06,61.23,127.01,290.3,Single-ply,SBD,M
Boys,67.13,12,Matt Kinerd,Anna,62.32,92.99,54.43,88.45,235.87,Single-ply,SBD,M
Boys,67.13,DQ,Alex Cordova,Bridgeport,64.23,,,,,Single-ply,SBD,M
Boys,67.13,DQ,Tyson Lewis,Frisco,66.59,136.08,,,,Single-ply,SBD,M
Boys,74.84,1,Ty Slaughter,Whitesboro,71.67,229.06,138.35,229.06,596.47,Single-ply,SBD,M
Boys,74.84,2,Joaquin Lopez,Howe,74.66,226.8,122.47,229.06,578.33,Single-ply,SBD,M
Boys,74.84,3,Tanner Johnson,Whitesboro,73.48,213.19,106.59,217.72,537.51,Single-ply,SBD,M
Boys,74.84,4,Savon Miles,Princeton,74.21,199.58,115.67,181.44,496.68,Single-ply,SBD,M
Boys,74.84,5,Cody Woolsey,Whitesboro,71.58,179.17,86.18,197.31,462.66,Single-ply,SBD,M
Boys,74.84,6,Tristan Coglon,Bells,70.31,172.37,102.06,172.37,446.79,Single-ply,SBD,M
Boys,74.84,7,Zach Torres,Princeton,69.22,163.29,102.06,174.63,439.98,Single-ply,SBD,M
Boys,74.84,8,Jake Bowland,Princeton,71.58,163.29,99.79,165.56,428.64,Single-ply,SBD,M
Boys,74.84,9,George Flores,Princeton,74.57,147.42,102.06,176.9,426.38,Single-ply,SBD,M
Boys,74.84,10,Questin Stumpff,Pottsboro,69.49,170.1,97.52,154.22,421.84,Single-ply,SBD,M
Boys,82.1,11,Nick Rivera,Gunter,75.02,145.15,92.99,158.76,396.89,Single-ply,SBD,M
Boys,74.84,12,Antonio Barragan,Anna,68.31,145.15,90.72,151.95,387.82,Single-ply,SBD,M
Boys,74.84,13,Tyler Raby,Bridgeport,71.3,122.47,81.65,167.83,371.95,Single-ply,SBD,M
Boys,74.84,14,Alec Beckett,Pilot Point,69.4,133.81,72.57,151.95,358.34,Single-ply,SBD,M
Boys,74.84,15,Preston Johnson,Whitesboro,71.58,136.08,63.5,140.61,340.19,Single-ply,SBD,M
Boys,74.84,DQ,John Hill,Whitewright,74.3,115.67,,,,Single-ply,SBD,M
Boys,74.84,DQ,Colt Galloway,Pilot Point,70.76,115.67,,,,Single-ply,SBD,M
Boys,74.84,DQ,Stephen Steele,Pottsboro,70.03,197.31,,,,Single-ply,SBD,M
Boys,74.84,DQ,Joseph Villanueva,Blue Ridge,72.85,117.93,,,,Single-ply,SBD,M
Boys,74.84,DQ,Dillon McAlister,Bridgeport,71.94,,,,,Single-ply,SBD,M
Boys,74.84,DQ,Roger Mastin,Bridgeport,72.57,,,,,Single-ply,SBD,M
Boys,82.1,1,Elijah Walker,Lindsay,78.29,204.12,120.2,181.44,505.76,Single-ply,SBD,M
Boys,82.1,2,Chris de la Cruz,Pottsboro,79.2,181.44,111.13,192.78,485.34,Single-ply,SBD,M
Boys,82.1,3,Jarrett Wilson,Pilot Point,76.11,188.24,133.81,161.03,483.08,Single-ply,SBD,M
Boys,82.1,4,Styven Canchola,Pilot Point,78.93,172.37,117.93,183.7,474,Single-ply,SBD,M
Boys,82.1,5,Logan Hardin,Pottsboro,77.75,170.1,104.33,167.83,442.25,Single-ply,SBD,M
Boys,82.1,6,Demetrion Meredith,Frisco,80.83,154.22,106.59,181.44,442.25,Single-ply,SBD,M
Boys,82.1,7,Cody McKamey,Whitesboro,77.02,149.69,92.99,190.51,433.18,Single-ply,SBD,M
Boys,82.1,8,Wyatt Park,McKinney Boyd,75.93,142.88,102.06,176.9,421.84,Single-ply,SBD,M
Boys,82.1,9,Trent Alexander,Van Alstyne,80.65,156.49,90.72,165.56,412.77,Single-ply,SBD,M
Boys,82.1,10,Brandon Murphey,Whitesboro,77.02,158.76,95.25,142.88,396.89,Single-ply,SBD,M
Boys,82.1,11,Drew Martin,Collinsville,81.47,133.81,86.18,163.29,383.29,Single-ply,SBD,M
Boys,82.1,12,Alec Kyle,Anna,78.65,131.54,102.06,145.15,378.75,Single-ply,SBD,M
Boys,82.1,13,Landon McClain,Van Alstyne,76.93,136.08,92.99,140.61,369.68,Single-ply,SBD,M
Boys,82.1,14,Tanner Hartsfield,Howe,76.48,140.61,77.11,149.69,367.41,Single-ply,SBD,M
Boys,82.1,15,Ethan Burts,Van Alstyne,80.47,115.67,83.91,138.35,337.93,Single-ply,SBD,M
Boys,82.1,DQ,Preston Bluett,Princeton,75.3,151.95,92.99,,,Single-ply,SBD,M
Boys,89.81,DQ,William Overby,Howe,82.28,99.79,,,,Single-ply,SBD,M
Boys,89.81,1,Zack LaRue,Callisburg,89.36,210.92,124.74,190.51,526.17,Single-ply,SBD,M
Boys,89.81,2,Vincent Moreno,Sherman,87.54,174.63,138.35,204.12,517.1,Single-ply,SBD,M
Boys,89.81,3,Chase Pinion,Anna,86.45,185.97,124.74,192.78,503.49,Single-ply,SBD,M
Boys,89.81,4,Adam White,Van Alstyne,83.19,176.9,113.4,210.92,501.22,Single-ply,SBD,M
Boys,89.81,5,Chad Perry,Sherman,82.74,165.56,129.27,192.78,487.61,Single-ply,SBD,M
Boys,89.81,6,Dalton Bartel,Muenster,83.1,181.44,108.86,197.31,487.61,Single-ply,SBD,M
Boys,89.81,7,Justin Bennett,Leonard,85.46,163.29,113.4,199.58,476.27,Single-ply,SBD,M
Boys,99.79,8,Tristan Farber,Leonard,89.9,170.1,131.54,170.1,471.74,Single-ply,SBD,M
Boys,89.81,9,Lazaro Aldaco,Collinsville,86.36,161.03,97.52,192.78,451.32,Single-ply,SBD,M
Boys,89.81,10,Jesse De Leon,Blue Ridge,85.09,165.56,102.06,179.17,446.79,Single-ply,SBD,M
Boys,89.81,11,Anthony Jones #6,Sherman,88.36,172.37,106.59,163.29,442.25,Single-ply,SBD,M
Boys,89.81,12,John Polus,McKinney Boyd,87.91,163.29,99.79,154.22,417.3,Single-ply,SBD,M
Boys,89.81,13,Jordan Anthony,Pottsboro,85.55,149.69,92.99,163.29,405.97,Single-ply,SBD,M
Boys,89.81,14,Clay Almond,Whitewright,88.18,129.27,68.04,124.74,322.05,Single-ply,SBD,M
Boys,89.81,DQ,Benny Montoya,Princeton,88.54,,,,,Single-ply,SBD,M
Boys,89.81,DQ,Billy Harokopus,McKinney Boyd,86.45,,,,,Single-ply,SBD,M
Boys,89.81,DQ,Greg James,Frisco,87,145.15,108.86,,,Single-ply,SBD,M
Boys,89.81,DQ,Rene Reyna,Frisco,89.45,142.88,97.52,,,Single-ply,SBD,M
Boys,89.81,DQ,Collin Skaggs,Callisburg,85.55,199.58,108.86,,,Single-ply,SBD,M
Boys,99.79,1,Garrett Lansford,Anna,91.63,244.94,167.83,235.87,648.64,Single-ply,SBD,M
Boys,99.79,2,Thomas Morales,Whitesboro,97.7,256.28,149.69,226.8,632.76,Single-ply,SBD,M
Boys,99.79,3,Lucas Reynolds #1,Frisco,98.79,197.31,113.4,201.85,512.56,Single-ply,SBD,M
Boys,99.79,4,Noah Raney,Sherman,90.54,179.17,117.93,195.04,492.15,Single-ply,SBD,M
Boys,99.79,5,Tyler Jennings,Bridgeport,97.52,174.63,129.27,181.44,485.34,Single-ply,SBD,M
Boys,99.79,6,Bradley Hume,McKinney Boyd,99.34,165.56,86.18,167.83,419.57,Single-ply,SBD,M
Boys,99.79,7,Tristan Torres,Sadler S & S Cons,94.89,158.76,90.72,158.76,408.23,Single-ply,SBD,M
Boys,99.79,8,Joel Menjivar,Howe,99.16,147.42,97.52,136.08,381.02,Single-ply,SBD,M
Boys,99.79,9,Cory Andrews,Collinsville,96.43,136.08,65.77,165.56,367.41,Single-ply,SBD,M
Boys,99.79,DQ,Logan Robert,Princeton,94.8,,,,,Single-ply,SBD,M
Boys,99.79,DQ,Kiefer Hansen,Whitewright,90.81,,,,,Single-ply,SBD,M
Boys,109.77,1,Logan Teel,Princeton,100.79,249.48,120.2,240.4,610.08,Single-ply,SBD,M
Boys,109.77,2,Ethan Lawson,Sadler S & S Cons,109.41,226.8,142.88,226.8,596.47,Single-ply,SBD,M
Boys,109.77,3,Chris Burgess,Callisburg,102.33,204.12,133.81,201.85,539.77,Single-ply,SBD,M
Boys,109.77,4,Joshua Melvin,Bells,109.41,213.19,127.01,181.44,521.63,Single-ply,SBD,M
Boys,109.77,5,Sheldon Parkman,Howe,105.41,213.19,108.86,195.04,517.1,Single-ply,SBD,M
Boys,109.77,6,Ryan Folk,Van Alstyne,107.5,188.24,133.81,188.24,510.29,Single-ply,SBD,M
Boys,109.77,7,Kent Haskett,Whitewright,106.41,192.78,111.13,204.12,508.02,Single-ply,SBD,M
Boys,109.77,8,Zach Walton,Pottsboro,102.78,185.97,90.72,190.51,467.2,Single-ply,SBD,M
Boys,109.77,9,Triston Robinson,Whitesboro,103.87,167.83,122.47,174.63,464.93,Single-ply,SBD,M
Boys,109.77,10,Chance Pierce,Bridgeport,104.51,147.42,120.2,190.51,458.13,Single-ply,SBD,M
Boys,124.74,11,Basil Gist,Pilot Point,109.86,183.7,102.06,172.37,458.13,Single-ply,SBD,M
Boys,109.77,12,Russell Carey,Whitesboro,105.78,179.17,86.18,185.97,451.32,Single-ply,SBD,M
Boys,109.77,13,Tim Edmonds,Pottsboro,102.33,181.44,83.91,176.9,442.25,Single-ply,SBD,M
Boys,109.77,14,Bry Warren,Bridgeport,102.42,154.22,99.79,181.44,435.45,Single-ply,SBD,M
Boys,109.77,DQ,Ryian Coleman,Frisco,109.04,181.44,111.13,,,Single-ply,SBD,M
Boys,124.74,1,Dillon Gage,Sadler S & S Cons,123.92,272.16,210.92,210.92,694,Single-ply,SBD,M
Boys,124.74,2,Bryan Townsend,Whitesboro,123.65,256.28,165.56,260.82,682.66,Single-ply,SBD,M
Boys,124.74,3,Bronson Burks,Bridgeport,121.74,240.4,131.54,249.48,621.42,Single-ply,SBD,M
Boys,124.74,4,Dawson Medler,Pottsboro,124.56,219.99,122.47,190.51,532.97,Single-ply,SBD,M
Boys,124.74,5,Darrell Woolen,Frisco,116.66,181.44,131.54,208.65,521.63,Single-ply,SBD,M
Boys,124.74,6,Jordan Noriega,Frisco,119.02,204.12,131.54,181.44,517.1,Single-ply,SBD,M
Boys,124.74,7,Francisco Estrada,Pilot Point,120.11,170.1,113.4,181.44,464.93,Single-ply,SBD,M
Boys,124.74,8,Kayl Powers,Collinsville,113.49,170.1,92.99,197.31,460.4,Single-ply,SBD,M
Boys,124.74,9,Hunter Ellender,Lindsay,121.83,197.31,92.99,170.1,460.4,Single-ply,SBD,M
Boys,124.74,10,Dominic Little,Whitewright,111.67,151.95,74.84,124.74,351.53,Single-ply,SBD,M
Boys,124.74+,1,Derek Templeman,Princeton,126.28,242.67,142.88,226.8,612.35,Single-ply,SBD,M
Boys,124.74+,2,Kasey Misenheimer,Whitesboro,131.54,260.82,131.54,215.46,607.81,Single-ply,SBD,M
Boys,124.74+,3,Patrick Quintana,McKinney Boyd,129.18,201.85,127.01,195.04,523.9,Single-ply,SBD,M
Boys,124.74+,4,Dillon Chambers,Sadler S & S Cons,126.73,188.24,142.88,179.17,510.29,Single-ply,SBD,M
Boys,124.74+,5,Enoch Johnson,Sherman,128.28,206.38,102.06,201.85,510.29,Single-ply,SBD,M
Boys,124.74+,6,Jaxon Deaton,Frisco,131.72,181.44,136.08,188.24,505.76,Single-ply,SBD,M
Boys,124.74+,7,Dalton Carver,Sadler S & S Cons,158.76,176.9,108.86,199.58,485.34,Single-ply,SBD,M
Boys,124.74+,8,David Palmore,Sherman,157.03,113.4,92.99,151.95,358.34,Single-ply,SBD,M
Boys,,NS,Keaton Vawter,Bridgeport,,,,,,Single-ply,SBD,M
Boys,,NS,Nate Ramirez,Bridgeport,,,,,,Single-ply,SBD,M
Boys,,NS,Garrett Smith #5,Callisburg,,,,,,Single-ply,SBD,M
Boys,,NS,Shawn Shugart,Callisburg,,,,,,Single-ply,SBD,M
